M48
;Layer_Color=9474304
;FILE_FORMAT=2:4
INCH
;TYPE=PLATED
T1F00S00C0.0280
T2F00S00C0.0300
T3F00S00C0.0354
%
T01
X033017Y028713
X031097Y029452
X030802Y026105
T02
X032869Y025465
X034739Y024580
X033995Y027981
X033164Y028024
X030211Y027975
X030556Y025121
T03
X037643Y024353
Y025353
Y026353
Y027353
Y028353
Y029353
M30
