Removed Pin From Net: NetName=NetD2_2 Pin=R2-1
Added Component: Designator=R4(0805R-330)
Added Pin To Net: NetName=+ IN 2 Pin=R2-1
Added Pin To Net: NetName=NetD2_2 Pin=R2-1
Added Pin To Net: NetName=GND Pin=R2-2
Added Member To Class: ClassName=Sunsensor 1st Phase Simplified Version Member=Component R4 330R
