G04 Layer_Physical_Order=2*
G04 Layer_Color=16711680*
%FSAX24Y24*%
%MOIN*%
G70*
G01*
G75*
%ADD25C,0.0100*%
%ADD26C,0.0300*%
%ADD27C,0.0200*%
%ADD29R,0.0591X0.0591*%
%ADD30C,0.0591*%
%ADD31R,0.0591X0.0591*%
%ADD32C,0.0300*%
%ADD33C,0.0600*%
%ADD34C,0.0197*%
%ADD35C,0.0500*%
%ADD36C,0.0551*%
%ADD37C,0.0728*%
%ADD38R,0.0728X0.0728*%
%ADD39C,0.0650*%
%ADD40R,0.0591X0.0591*%
G36*
X037545Y032831D02*
X047545D01*
Y011334D01*
X037531D01*
X037496Y011369D01*
X037545Y032831D01*
D02*
G37*
%LPC*%
G36*
X044875Y022511D02*
Y022215D01*
X044917Y022220D01*
X045002Y022255D01*
X045075Y022311D01*
X045131Y022385D01*
X045166Y022470D01*
X045172Y022511D01*
X044875D01*
D02*
G37*
G36*
X044447Y028531D02*
X044460Y028428D01*
X044500Y028332D01*
X044563Y028249D01*
X044646Y028186D01*
X044742Y028146D01*
X044845Y028132D01*
X044948Y028146D01*
X045045Y028186D01*
X045127Y028249D01*
X045191Y028332D01*
X045230Y028428D01*
X045244Y028531D01*
X045230Y028634D01*
X045191Y028730D01*
X045127Y028813D01*
X045045Y028876D01*
X044948Y028916D01*
X044845Y028930D01*
X044742Y028916D01*
X044646Y028876D01*
X044563Y028813D01*
X044500Y028730D01*
X044460Y028634D01*
X044447Y028531D01*
D02*
G37*
G36*
X044875Y022908D02*
Y022611D01*
X045172D01*
X045166Y022652D01*
X045131Y022738D01*
X045075Y022811D01*
X045002Y022867D01*
X044917Y022902D01*
X044875Y022908D01*
D02*
G37*
G36*
X044675Y013658D02*
Y013361D01*
X044972D01*
X044966Y013402D01*
X044931Y013488D01*
X044875Y013561D01*
X044802Y013617D01*
X044717Y013652D01*
X044675Y013658D01*
D02*
G37*
G36*
Y013261D02*
Y012965D01*
X044717Y012970D01*
X044802Y013005D01*
X044875Y013061D01*
X044931Y013135D01*
X044966Y013220D01*
X044972Y013261D01*
X044675D01*
D02*
G37*
G36*
X043420Y016111D02*
X043440Y016014D01*
X043495Y015931D01*
X043578Y015876D01*
X043675Y015856D01*
X043773Y015876D01*
X043856Y015931D01*
X043874Y015958D01*
X044520D01*
X044579Y015970D01*
X044628Y016003D01*
X045129Y016504D01*
X045163Y016554D01*
X045174Y016612D01*
Y018609D01*
X045202Y018627D01*
X045257Y018710D01*
X045276Y018807D01*
X045257Y018905D01*
X045202Y018987D01*
X045119Y019043D01*
X045021Y019062D01*
X044924Y019043D01*
X044841Y018987D01*
X044786Y018905D01*
X044766Y018807D01*
X044786Y018710D01*
X044801Y018686D01*
X044804Y018673D01*
X044837Y018623D01*
X044868Y018602D01*
Y016675D01*
X044457Y016264D01*
X043874D01*
X043856Y016291D01*
X043773Y016347D01*
X043675Y016366D01*
X043578Y016347D01*
X043495Y016291D01*
X043440Y016209D01*
X043420Y016111D01*
D02*
G37*
G36*
X045453Y028481D02*
X045460Y028428D01*
X045500Y028332D01*
X045563Y028249D01*
X045646Y028186D01*
X045742Y028146D01*
X045795Y028139D01*
Y028481D01*
X045453D01*
D02*
G37*
G36*
X045400Y022876D02*
Y022086D01*
X046191D01*
Y022876D01*
X045400D01*
D02*
G37*
G36*
X045453Y028581D02*
X045795D01*
Y028923D01*
X045742Y028916D01*
X045646Y028876D01*
X045563Y028813D01*
X045500Y028730D01*
X045460Y028634D01*
X045453Y028581D01*
D02*
G37*
G36*
X045428Y026461D02*
X045775D01*
Y026808D01*
X045721Y026801D01*
X045624Y026760D01*
X045540Y026696D01*
X045476Y026613D01*
X045436Y026516D01*
X045428Y026461D01*
D02*
G37*
G36*
Y026361D02*
X045436Y026307D01*
X045476Y026209D01*
X045540Y026126D01*
X045624Y026062D01*
X045721Y026021D01*
X045775Y026014D01*
Y026361D01*
X045428D01*
D02*
G37*
G36*
X044479Y022511D02*
X044484Y022470D01*
X044520Y022385D01*
X044576Y022311D01*
X044649Y022255D01*
X044734Y022220D01*
X044775Y022215D01*
Y022511D01*
X044479D01*
D02*
G37*
G36*
X043277Y017161D02*
X043290Y017058D01*
X043330Y016962D01*
X043393Y016879D01*
X043476Y016816D01*
X043572Y016776D01*
X043675Y016762D01*
X043778Y016776D01*
X043875Y016816D01*
X043957Y016879D01*
X044021Y016962D01*
X044060Y017058D01*
X044074Y017161D01*
X044060Y017264D01*
X044021Y017360D01*
X043957Y017443D01*
X043875Y017506D01*
X043778Y017546D01*
X043675Y017560D01*
X043572Y017546D01*
X043476Y017506D01*
X043393Y017443D01*
X043330Y017360D01*
X043290Y017264D01*
X043277Y017161D01*
D02*
G37*
G36*
X043450Y028926D02*
Y028136D01*
X044241D01*
Y028926D01*
X043450D01*
D02*
G37*
G36*
X043775Y013911D02*
Y013615D01*
X043817Y013620D01*
X043902Y013655D01*
X043975Y013711D01*
X044031Y013785D01*
X044066Y013870D01*
X044072Y013911D01*
X043775D01*
D02*
G37*
G36*
X043280Y018556D02*
Y017766D01*
X044071D01*
Y018556D01*
X043280D01*
D02*
G37*
G36*
X043775Y014308D02*
Y014011D01*
X044072D01*
X044066Y014052D01*
X044031Y014138D01*
X043975Y014211D01*
X043902Y014267D01*
X043817Y014302D01*
X043775Y014308D01*
D02*
G37*
G36*
X044075Y022908D02*
Y022611D01*
X044372D01*
X044366Y022652D01*
X044331Y022738D01*
X044275Y022811D01*
X044202Y022867D01*
X044117Y022902D01*
X044075Y022908D01*
D02*
G37*
G36*
X044279Y013261D02*
X044284Y013220D01*
X044320Y013135D01*
X044376Y013061D01*
X044449Y013005D01*
X044534Y012970D01*
X044575Y012965D01*
Y013261D01*
X044279D01*
D02*
G37*
G36*
X044479Y022611D02*
X044775D01*
Y022908D01*
X044734Y022902D01*
X044649Y022867D01*
X044576Y022811D01*
X044520Y022738D01*
X044484Y022652D01*
X044479Y022611D01*
D02*
G37*
G36*
X044279Y013361D02*
X044575D01*
Y013658D01*
X044534Y013652D01*
X044449Y013617D01*
X044376Y013561D01*
X044320Y013488D01*
X044284Y013402D01*
X044279Y013361D01*
D02*
G37*
G36*
X044075Y022511D02*
Y022215D01*
X044117Y022220D01*
X044202Y022255D01*
X044275Y022311D01*
X044331Y022385D01*
X044366Y022470D01*
X044372Y022511D01*
X044075D01*
D02*
G37*
G36*
X044270Y018511D02*
X044290Y018414D01*
X044345Y018331D01*
X044372Y018313D01*
Y017460D01*
X044345Y017441D01*
X044290Y017359D01*
X044270Y017261D01*
X044290Y017164D01*
X044345Y017081D01*
X044428Y017026D01*
X044525Y017006D01*
X044623Y017026D01*
X044706Y017081D01*
X044761Y017164D01*
X044780Y017261D01*
X044761Y017359D01*
X044706Y017441D01*
X044678Y017460D01*
Y018313D01*
X044706Y018331D01*
X044761Y018414D01*
X044780Y018511D01*
X044761Y018609D01*
X044706Y018691D01*
X044623Y018747D01*
X044525Y018766D01*
X044428Y018747D01*
X044345Y018691D01*
X044290Y018609D01*
X044270Y018511D01*
D02*
G37*
G36*
X045397Y021481D02*
X045410Y021378D01*
X045450Y021282D01*
X045513Y021199D01*
X045596Y021136D01*
X045692Y021096D01*
X045795Y021082D01*
X045898Y021096D01*
X045995Y021136D01*
X046077Y021199D01*
X046141Y021282D01*
X046180Y021378D01*
X046194Y021481D01*
X046180Y021584D01*
X046141Y021680D01*
X046077Y021763D01*
X045995Y021826D01*
X045898Y021866D01*
X045795Y021880D01*
X045692Y021866D01*
X045596Y021826D01*
X045513Y021763D01*
X045450Y021680D01*
X045410Y021584D01*
X045397Y021481D01*
D02*
G37*
G36*
X046645Y014731D02*
Y014435D01*
X046687Y014440D01*
X046772Y014475D01*
X046845Y014531D01*
X046901Y014605D01*
X046936Y014690D01*
X046942Y014731D01*
X046645D01*
D02*
G37*
G36*
X046679Y020611D02*
X046975D01*
Y020908D01*
X046934Y020902D01*
X046849Y020867D01*
X046776Y020811D01*
X046720Y020738D01*
X046684Y020652D01*
X046679Y020611D01*
D02*
G37*
G36*
X046645Y015128D02*
Y014831D01*
X046942D01*
X046936Y014872D01*
X046901Y014958D01*
X046845Y015031D01*
X046772Y015087D01*
X046687Y015122D01*
X046645Y015128D01*
D02*
G37*
G36*
X046400Y012476D02*
Y012131D01*
X046745D01*
Y012476D01*
X046400D01*
D02*
G37*
G36*
Y012031D02*
Y011686D01*
X046745D01*
Y012031D01*
X046400D01*
D02*
G37*
G36*
X046679Y020511D02*
X046684Y020470D01*
X046720Y020385D01*
X046776Y020311D01*
X046849Y020255D01*
X046934Y020220D01*
X046975Y020215D01*
Y020511D01*
X046679D01*
D02*
G37*
G36*
X047075Y020908D02*
Y020611D01*
X047372D01*
X047366Y020652D01*
X047331Y020738D01*
X047275Y020811D01*
X047202Y020867D01*
X047117Y020902D01*
X047075Y020908D01*
D02*
G37*
G36*
Y020511D02*
Y020215D01*
X047117Y020220D01*
X047202Y020255D01*
X047275Y020311D01*
X047331Y020385D01*
X047366Y020470D01*
X047372Y020511D01*
X047075D01*
D02*
G37*
G36*
X046397Y013081D02*
X046410Y012978D01*
X046450Y012882D01*
X046513Y012799D01*
X046596Y012736D01*
X046692Y012696D01*
X046795Y012682D01*
X046898Y012696D01*
X046995Y012736D01*
X047077Y012799D01*
X047141Y012882D01*
X047180Y012978D01*
X047194Y013081D01*
X047180Y013184D01*
X047141Y013280D01*
X047077Y013363D01*
X046995Y013426D01*
X046898Y013466D01*
X046795Y013480D01*
X046692Y013466D01*
X046596Y013426D01*
X046513Y013363D01*
X046450Y013280D01*
X046410Y013184D01*
X046397Y013081D01*
D02*
G37*
G36*
X046845Y012476D02*
Y012131D01*
X047191D01*
Y012476D01*
X046845D01*
D02*
G37*
G36*
Y012031D02*
Y011686D01*
X047191D01*
Y012031D01*
X046845D01*
D02*
G37*
G36*
X046375Y031561D02*
Y031214D01*
X046430Y031221D01*
X046527Y031262D01*
X046611Y031326D01*
X046675Y031409D01*
X046715Y031507D01*
X046722Y031561D01*
X046375D01*
D02*
G37*
G36*
X045895Y028481D02*
Y028139D01*
X045948Y028146D01*
X046045Y028186D01*
X046127Y028249D01*
X046191Y028332D01*
X046230Y028428D01*
X046237Y028481D01*
X045895D01*
D02*
G37*
G36*
X045928Y031661D02*
X046275D01*
Y032008D01*
X046221Y032001D01*
X046124Y031960D01*
X046040Y031896D01*
X045976Y031813D01*
X045936Y031716D01*
X045928Y031661D01*
D02*
G37*
G36*
X045895Y028923D02*
Y028581D01*
X046237D01*
X046230Y028634D01*
X046191Y028730D01*
X046127Y028813D01*
X046045Y028876D01*
X045948Y028916D01*
X045895Y028923D01*
D02*
G37*
G36*
X045875Y026808D02*
Y026461D01*
X046222D01*
X046215Y026516D01*
X046175Y026613D01*
X046111Y026696D01*
X046027Y026760D01*
X045930Y026801D01*
X045875Y026808D01*
D02*
G37*
G36*
Y026361D02*
Y026014D01*
X045930Y026021D01*
X046027Y026062D01*
X046111Y026126D01*
X046175Y026209D01*
X046215Y026307D01*
X046222Y026361D01*
X045875D01*
D02*
G37*
G36*
X045928Y031561D02*
X045936Y031507D01*
X045976Y031409D01*
X046040Y031326D01*
X046124Y031262D01*
X046221Y031221D01*
X046275Y031214D01*
Y031561D01*
X045928D01*
D02*
G37*
G36*
X045897Y017431D02*
X045910Y017328D01*
X045950Y017232D01*
X046013Y017149D01*
X046096Y017086D01*
X046192Y017046D01*
X046295Y017032D01*
X046398Y017046D01*
X046495Y017086D01*
X046577Y017149D01*
X046641Y017232D01*
X046680Y017328D01*
X046694Y017431D01*
X046680Y017534D01*
X046641Y017630D01*
X046577Y017713D01*
X046495Y017776D01*
X046398Y017816D01*
X046295Y017830D01*
X046192Y017816D01*
X046096Y017776D01*
X046013Y017713D01*
X045950Y017630D01*
X045910Y017534D01*
X045897Y017431D01*
D02*
G37*
G36*
X046375Y032008D02*
Y031661D01*
X046722D01*
X046715Y031716D01*
X046675Y031813D01*
X046611Y031896D01*
X046527Y031960D01*
X046430Y032001D01*
X046375Y032008D01*
D02*
G37*
G36*
X045900Y018826D02*
Y018036D01*
X046691D01*
Y018826D01*
X045900D01*
D02*
G37*
G36*
X046249Y014831D02*
X046545D01*
Y015128D01*
X046504Y015122D01*
X046419Y015087D01*
X046346Y015031D01*
X046290Y014958D01*
X046254Y014872D01*
X046249Y014831D01*
D02*
G37*
G36*
Y014731D02*
X046254Y014690D01*
X046290Y014605D01*
X046346Y014531D01*
X046419Y014475D01*
X046504Y014440D01*
X046545Y014435D01*
Y014731D01*
X046249D01*
D02*
G37*
G36*
X040599Y022881D02*
X040604Y022840D01*
X040640Y022755D01*
X040696Y022681D01*
X040769Y022625D01*
X040854Y022590D01*
X040895Y022585D01*
Y022881D01*
X040599D01*
D02*
G37*
G36*
X040230Y012706D02*
Y011916D01*
X041021D01*
Y012706D01*
X040230D01*
D02*
G37*
G36*
X040995Y023278D02*
Y022981D01*
X041292D01*
X041286Y023022D01*
X041251Y023108D01*
X041195Y023181D01*
X041122Y023237D01*
X041037Y023272D01*
X040995Y023278D01*
D02*
G37*
G36*
X040325Y032061D02*
Y031719D01*
X040378Y031726D01*
X040475Y031766D01*
X040557Y031829D01*
X040621Y031912D01*
X040660Y032008D01*
X040667Y032061D01*
X040325D01*
D02*
G37*
G36*
X039980Y030506D02*
Y029716D01*
X040771D01*
Y030506D01*
X039980D01*
D02*
G37*
G36*
X040599Y022981D02*
X040895D01*
Y023278D01*
X040854Y023272D01*
X040769Y023237D01*
X040696Y023181D01*
X040640Y023108D01*
X040604Y023022D01*
X040599Y022981D01*
D02*
G37*
G36*
X040977Y030111D02*
X040990Y030008D01*
X041030Y029912D01*
X041093Y029829D01*
X041176Y029766D01*
X041272Y029726D01*
X041375Y029712D01*
X041478Y029726D01*
X041575Y029766D01*
X041657Y029829D01*
X041721Y029912D01*
X041760Y030008D01*
X041774Y030111D01*
X041760Y030214D01*
X041721Y030310D01*
X041657Y030393D01*
X041575Y030456D01*
X041478Y030496D01*
X041375Y030510D01*
X041272Y030496D01*
X041176Y030456D01*
X041093Y030393D01*
X041030Y030310D01*
X040990Y030214D01*
X040977Y030111D01*
D02*
G37*
G36*
X041529Y027861D02*
X041825D01*
Y028158D01*
X041784Y028152D01*
X041699Y028117D01*
X041626Y028061D01*
X041570Y027988D01*
X041534Y027902D01*
X041529Y027861D01*
D02*
G37*
G36*
Y027761D02*
X041534Y027720D01*
X041570Y027635D01*
X041626Y027561D01*
X041699Y027505D01*
X041784Y027470D01*
X041825Y027465D01*
Y027761D01*
X041529D01*
D02*
G37*
G36*
X040995Y022881D02*
Y022585D01*
X041037Y022590D01*
X041122Y022625D01*
X041195Y022681D01*
X041251Y022755D01*
X041286Y022840D01*
X041292Y022881D01*
X040995D01*
D02*
G37*
G36*
X041229Y022511D02*
X041525D01*
Y022808D01*
X041484Y022802D01*
X041399Y022767D01*
X041326Y022711D01*
X041270Y022638D01*
X041234Y022552D01*
X041229Y022511D01*
D02*
G37*
G36*
Y022411D02*
X041234Y022370D01*
X041270Y022285D01*
X041326Y022211D01*
X041399Y022155D01*
X041484Y022120D01*
X041525Y022115D01*
Y022411D01*
X041229D01*
D02*
G37*
G36*
X038295Y012781D02*
Y012436D01*
X038641D01*
Y012781D01*
X038295D01*
D02*
G37*
G36*
X039443Y026714D02*
X039458Y026637D01*
X039502Y026571D01*
X039568Y026527D01*
X039589Y026523D01*
Y026472D01*
X039568Y026468D01*
X039502Y026424D01*
X039458Y026359D01*
X039443Y026281D01*
X039458Y026204D01*
X039502Y026138D01*
X039568Y026094D01*
X039589Y026090D01*
Y026039D01*
X039568Y026035D01*
X039502Y025991D01*
X039458Y025925D01*
X039443Y025848D01*
X039458Y025771D01*
X039502Y025705D01*
X039568Y025661D01*
X039645Y025646D01*
X039723Y025661D01*
X039788Y025705D01*
X039821Y025754D01*
X039872Y025759D01*
X039879Y025757D01*
X039902Y025722D01*
X039968Y025678D01*
X040045Y025663D01*
X040123Y025678D01*
X040188Y025722D01*
X040232Y025788D01*
X040236Y025808D01*
X040287D01*
X040291Y025788D01*
X040335Y025722D01*
X040401Y025678D01*
X040478Y025663D01*
X040556Y025678D01*
X040621Y025722D01*
X040665Y025788D01*
X040681Y025865D01*
X040665Y025942D01*
X040621Y026008D01*
X040556Y026052D01*
X040535Y026056D01*
Y026107D01*
X040556Y026111D01*
X040621Y026155D01*
X040665Y026221D01*
X040681Y026298D01*
X040665Y026375D01*
X040621Y026441D01*
X040556Y026485D01*
X040535Y026489D01*
Y026540D01*
X040556Y026544D01*
X040621Y026588D01*
X040665Y026654D01*
X040681Y026731D01*
X040665Y026809D01*
X040621Y026874D01*
X040556Y026918D01*
X040478Y026933D01*
X040401Y026918D01*
X040335Y026874D01*
X040291Y026809D01*
X040287Y026788D01*
X040236D01*
X040232Y026809D01*
X040188Y026874D01*
X040123Y026918D01*
X040045Y026933D01*
X039968Y026918D01*
X039902Y026874D01*
X039870Y026825D01*
X039818Y026820D01*
X039812Y026822D01*
X039788Y026857D01*
X039723Y026901D01*
X039645Y026916D01*
X039568Y026901D01*
X039502Y026857D01*
X039458Y026792D01*
X039443Y026714D01*
D02*
G37*
G36*
X038847Y012831D02*
X038860Y012728D01*
X038900Y012632D01*
X038963Y012549D01*
X039046Y012486D01*
X039142Y012446D01*
X039245Y012432D01*
X039348Y012446D01*
X039445Y012486D01*
X039527Y012549D01*
X039591Y012632D01*
X039630Y012728D01*
X039644Y012831D01*
X039630Y012934D01*
X039591Y013030D01*
X039527Y013113D01*
X039445Y013176D01*
X039348Y013216D01*
X039245Y013230D01*
X039142Y013216D01*
X039046Y013176D01*
X038963Y013113D01*
X038900Y013030D01*
X038860Y012934D01*
X038847Y012831D01*
D02*
G37*
G36*
X037850Y013226D02*
Y012881D01*
X038195D01*
Y013226D01*
X037850D01*
D02*
G37*
G36*
Y012781D02*
Y012436D01*
X038195D01*
Y012781D01*
X037850D01*
D02*
G37*
G36*
X038295Y013226D02*
Y012881D01*
X038641D01*
Y013226D01*
X038295D01*
D02*
G37*
G36*
X038390Y018681D02*
X038410Y018584D01*
X038465Y018501D01*
X038548Y018446D01*
X038645Y018426D01*
X039745D01*
X039843Y018446D01*
X039926Y018501D01*
X040276Y018851D01*
X040331Y018934D01*
X040350Y019031D01*
X040331Y019129D01*
X040276Y019211D01*
X040193Y019267D01*
X040095Y019286D01*
X039998Y019267D01*
X039915Y019211D01*
X039640Y018936D01*
X038645D01*
X038548Y018917D01*
X038465Y018861D01*
X038410Y018779D01*
X038390Y018681D01*
D02*
G37*
G36*
X038240Y024381D02*
Y022681D01*
X038260Y022584D01*
X038315Y022501D01*
X039865Y020951D01*
X039948Y020896D01*
X040045Y020876D01*
X040080Y020883D01*
X040098Y020879D01*
X040196Y020899D01*
X040279Y020954D01*
X040334Y021037D01*
X040353Y021134D01*
X040334Y021232D01*
X040279Y021314D01*
X040196Y021370D01*
X040160Y021377D01*
X038750Y022787D01*
Y024381D01*
X038731Y024479D01*
X038676Y024561D01*
X038593Y024617D01*
X038495Y024636D01*
X038398Y024617D01*
X038315Y024561D01*
X038260Y024479D01*
X038240Y024381D01*
D02*
G37*
G36*
X040325Y032503D02*
Y032161D01*
X040667D01*
X040660Y032214D01*
X040621Y032310D01*
X040557Y032393D01*
X040475Y032456D01*
X040378Y032496D01*
X040325Y032503D01*
D02*
G37*
G36*
X038880Y032506D02*
Y031716D01*
X039671D01*
Y032506D01*
X038880D01*
D02*
G37*
G36*
X039883Y032161D02*
X040225D01*
Y032503D01*
X040172Y032496D01*
X040076Y032456D01*
X039993Y032393D01*
X039930Y032310D01*
X039890Y032214D01*
X039883Y032161D01*
D02*
G37*
G36*
Y032061D02*
X039890Y032008D01*
X039930Y031912D01*
X039993Y031829D01*
X040076Y031766D01*
X040172Y031726D01*
X040225Y031719D01*
Y032061D01*
X039883D01*
D02*
G37*
G36*
X042077Y018161D02*
X042090Y018058D01*
X042130Y017962D01*
X042193Y017879D01*
X042276Y017816D01*
X042372Y017776D01*
X042475Y017762D01*
X042578Y017776D01*
X042675Y017816D01*
X042757Y017879D01*
X042821Y017962D01*
X042860Y018058D01*
X042874Y018161D01*
X042860Y018264D01*
X042821Y018360D01*
X042757Y018443D01*
X042675Y018506D01*
X042578Y018546D01*
X042475Y018560D01*
X042372Y018546D01*
X042276Y018506D01*
X042193Y018443D01*
X042130Y018360D01*
X042090Y018264D01*
X042077Y018161D01*
D02*
G37*
G36*
X042695Y020031D02*
Y019735D01*
X042737Y019740D01*
X042822Y019775D01*
X042895Y019831D01*
X042951Y019905D01*
X042986Y019990D01*
X042992Y020031D01*
X042695D01*
D02*
G37*
G36*
X042925Y014308D02*
Y014011D01*
X043222D01*
X043216Y014052D01*
X043181Y014138D01*
X043125Y014211D01*
X043052Y014267D01*
X042967Y014302D01*
X042925Y014308D01*
D02*
G37*
G36*
X042529Y014011D02*
X042825D01*
Y014308D01*
X042784Y014302D01*
X042699Y014267D01*
X042626Y014211D01*
X042570Y014138D01*
X042534Y014052D01*
X042529Y014011D01*
D02*
G37*
G36*
Y013911D02*
X042534Y013870D01*
X042570Y013785D01*
X042626Y013711D01*
X042699Y013655D01*
X042784Y013620D01*
X042825Y013615D01*
Y013911D01*
X042529D01*
D02*
G37*
G36*
X042080Y017556D02*
Y016766D01*
X042871D01*
Y017556D01*
X042080D01*
D02*
G37*
G36*
X043379Y013911D02*
X043384Y013870D01*
X043420Y013785D01*
X043476Y013711D01*
X043549Y013655D01*
X043634Y013620D01*
X043675Y013615D01*
Y013911D01*
X043379D01*
D02*
G37*
G36*
X043679Y022611D02*
X043975D01*
Y022908D01*
X043934Y022902D01*
X043849Y022867D01*
X043776Y022811D01*
X043720Y022738D01*
X043684Y022652D01*
X043679Y022611D01*
D02*
G37*
G36*
Y022511D02*
X043684Y022470D01*
X043720Y022385D01*
X043776Y022311D01*
X043849Y022255D01*
X043934Y022220D01*
X043975Y022215D01*
Y022511D01*
X043679D01*
D02*
G37*
G36*
X042925Y013911D02*
Y013615D01*
X042967Y013620D01*
X043052Y013655D01*
X043125Y013711D01*
X043181Y013785D01*
X043216Y013870D01*
X043222Y013911D01*
X042925D01*
D02*
G37*
G36*
X040872Y019461D02*
X040886Y019357D01*
X040926Y019259D01*
X040990Y019176D01*
X041071Y019113D01*
Y017061D01*
X041087Y016983D01*
X041131Y016917D01*
X041785Y016263D01*
X041772Y016161D01*
X041786Y016057D01*
X041826Y015959D01*
X041890Y015876D01*
X041974Y015812D01*
X042071Y015771D01*
X042175Y015758D01*
X042280Y015771D01*
X042377Y015812D01*
X042461Y015876D01*
X042525Y015959D01*
X042565Y016057D01*
X042579Y016161D01*
X042565Y016266D01*
X042525Y016363D01*
X042461Y016446D01*
X042377Y016510D01*
X042280Y016551D01*
X042175Y016565D01*
X042074Y016551D01*
X041479Y017146D01*
Y019113D01*
X041561Y019176D01*
X041625Y019259D01*
X041645Y019308D01*
X043425D01*
X043484Y019320D01*
X043533Y019353D01*
X044009Y019829D01*
X044093Y019846D01*
X044176Y019901D01*
X044226Y019977D01*
X044254Y019978D01*
X044278Y019971D01*
X044290Y019914D01*
X044345Y019831D01*
X044428Y019776D01*
X044525Y019756D01*
X044623Y019776D01*
X044706Y019831D01*
X044761Y019914D01*
X044780Y020011D01*
X044761Y020109D01*
X044706Y020191D01*
X044623Y020247D01*
X044527Y020266D01*
X044203Y020589D01*
X044154Y020622D01*
X044095Y020634D01*
X043059D01*
X042948Y020744D01*
Y021468D01*
X043263Y021783D01*
X043295Y021776D01*
X043393Y021796D01*
X043476Y021851D01*
X043531Y021934D01*
X043550Y022031D01*
X043531Y022129D01*
X043476Y022211D01*
X043393Y022267D01*
X043295Y022286D01*
X043198Y022267D01*
X043115Y022211D01*
X043060Y022129D01*
X043040Y022031D01*
X043047Y021999D01*
X042687Y021639D01*
X042654Y021590D01*
X042642Y021531D01*
Y020681D01*
X042654Y020623D01*
X042687Y020573D01*
X042817Y020443D01*
X042789Y020400D01*
X042737Y020422D01*
X042695Y020428D01*
Y020131D01*
X042992D01*
X042986Y020172D01*
X042951Y020258D01*
X042924Y020293D01*
X042954Y020336D01*
X042995Y020328D01*
X043825D01*
X043840Y020278D01*
X043815Y020261D01*
X043760Y020179D01*
X043740Y020081D01*
X043755Y020007D01*
X043362Y019614D01*
X041645D01*
X041625Y019663D01*
X041561Y019746D01*
X041477Y019811D01*
X041380Y019851D01*
X041275Y019865D01*
X041171Y019851D01*
X041074Y019811D01*
X040990Y019746D01*
X040926Y019663D01*
X040886Y019566D01*
X040872Y019461D01*
D02*
G37*
G36*
X043379Y014011D02*
X043675D01*
Y014308D01*
X043634Y014302D01*
X043549Y014267D01*
X043476Y014211D01*
X043420Y014138D01*
X043384Y014052D01*
X043379Y014011D01*
D02*
G37*
G36*
X041925Y028158D02*
Y027861D01*
X042222D01*
X042216Y027902D01*
X042181Y027988D01*
X042125Y028061D01*
X042052Y028117D01*
X041967Y028152D01*
X041925Y028158D01*
D02*
G37*
G36*
Y027761D02*
Y027465D01*
X041967Y027470D01*
X042052Y027505D01*
X042125Y027561D01*
X042181Y027635D01*
X042216Y027720D01*
X042222Y027761D01*
X041925D01*
D02*
G37*
G36*
X042129Y013161D02*
X042425D01*
Y013458D01*
X042384Y013452D01*
X042299Y013417D01*
X042226Y013361D01*
X042170Y013288D01*
X042134Y013202D01*
X042129Y013161D01*
D02*
G37*
G36*
X041625Y022808D02*
Y022511D01*
X041922D01*
X041916Y022552D01*
X041881Y022638D01*
X041825Y022711D01*
X041752Y022767D01*
X041667Y022802D01*
X041625Y022808D01*
D02*
G37*
G36*
Y022411D02*
Y022115D01*
X041667Y022120D01*
X041752Y022155D01*
X041825Y022211D01*
X041881Y022285D01*
X041916Y022370D01*
X041922Y022411D01*
X041625D01*
D02*
G37*
G36*
X041227Y012311D02*
X041240Y012208D01*
X041280Y012112D01*
X041343Y012029D01*
X041426Y011966D01*
X041522Y011926D01*
X041625Y011912D01*
X041728Y011926D01*
X041825Y011966D01*
X041907Y012029D01*
X041971Y012112D01*
X042010Y012208D01*
X042024Y012311D01*
X042010Y012414D01*
X041971Y012510D01*
X041907Y012593D01*
X041825Y012656D01*
X041728Y012696D01*
X041625Y012710D01*
X041522Y012696D01*
X041426Y012656D01*
X041343Y012593D01*
X041280Y012510D01*
X041240Y012414D01*
X041227Y012311D01*
D02*
G37*
G36*
X042299Y020031D02*
X042304Y019990D01*
X042340Y019905D01*
X042396Y019831D01*
X042469Y019775D01*
X042554Y019740D01*
X042595Y019735D01*
Y020031D01*
X042299D01*
D02*
G37*
G36*
X042525Y013458D02*
Y013161D01*
X042822D01*
X042816Y013202D01*
X042781Y013288D01*
X042725Y013361D01*
X042652Y013417D01*
X042567Y013452D01*
X042525Y013458D01*
D02*
G37*
G36*
Y013061D02*
Y012765D01*
X042567Y012770D01*
X042652Y012805D01*
X042725Y012861D01*
X042781Y012935D01*
X042816Y013020D01*
X042822Y013061D01*
X042525D01*
D02*
G37*
G36*
X042129D02*
X042134Y013020D01*
X042170Y012935D01*
X042226Y012861D01*
X042299Y012805D01*
X042384Y012770D01*
X042425Y012765D01*
Y013061D01*
X042129D01*
D02*
G37*
G36*
X042470Y024561D02*
X042490Y024464D01*
X042545Y024381D01*
X042572Y024363D01*
Y023610D01*
X042545Y023591D01*
X042490Y023509D01*
X042470Y023411D01*
X042490Y023314D01*
X042545Y023231D01*
X042628Y023176D01*
X042725Y023156D01*
X042823Y023176D01*
X042906Y023231D01*
X042961Y023314D01*
X042980Y023411D01*
X042961Y023509D01*
X042906Y023591D01*
X042878Y023610D01*
Y024363D01*
X042906Y024381D01*
X042961Y024464D01*
X042980Y024561D01*
X042961Y024659D01*
X042906Y024741D01*
X042823Y024797D01*
X042725Y024816D01*
X042628Y024797D01*
X042545Y024741D01*
X042490Y024659D01*
X042470Y024561D01*
D02*
G37*
G36*
X042299Y020131D02*
X042595D01*
Y020428D01*
X042554Y020422D01*
X042469Y020387D01*
X042396Y020331D01*
X042340Y020258D01*
X042304Y020172D01*
X042299Y020131D01*
D02*
G37*
%LPD*%
D25*
X044525Y017261D02*
Y018511D01*
X044545Y020031D02*
X044095Y020481D01*
X042725Y023411D02*
Y024561D01*
X043425Y019461D02*
X041275D01*
X044520Y016111D02*
X045021Y016612D01*
X044520Y016111D02*
X043675D01*
X043425Y019461D02*
X043995Y020031D01*
Y020081D01*
X044545Y017257D02*
X044525Y017261D01*
X044095Y020481D02*
X042995D01*
X040095Y021131D02*
X040045D01*
X042795Y021531D02*
X043295Y022031D01*
X042795Y020681D02*
Y021531D01*
X042995Y020481D02*
X042795Y020681D01*
X044945Y018731D02*
X045021Y018807D01*
Y016612D02*
Y018807D01*
D26*
X039745Y018681D02*
X040095Y019031D01*
X038495Y022681D02*
Y024381D01*
X040045Y021131D02*
X038495Y022681D01*
X039745Y018681D02*
X038645D01*
D27*
X041275Y017061D02*
Y019461D01*
X042175Y016161D02*
X041275Y017061D01*
D29*
X046795Y012081D02*
D03*
X042475Y017161D02*
D03*
X043675Y018161D02*
D03*
X046295Y018431D02*
D03*
X045795Y022481D02*
D03*
D30*
X046795Y013081D02*
D03*
X041625Y012311D02*
D03*
X041375Y030111D02*
D03*
X042475Y018161D02*
D03*
X043675Y017161D02*
D03*
X046295Y017431D02*
D03*
X045795Y021481D02*
D03*
X040275Y032111D02*
D03*
X039245Y012831D02*
D03*
X045845Y028531D02*
D03*
X044845D02*
D03*
X020079Y020945D02*
D03*
X019079D02*
D03*
X018079D02*
D03*
X017079D02*
D03*
X016079D02*
D03*
X015079D02*
D03*
X014079D02*
D03*
X033071D02*
D03*
X032071D02*
D03*
X031071D02*
D03*
X030071D02*
D03*
X029071D02*
D03*
X028071D02*
D03*
X027071D02*
D03*
X020079Y033937D02*
D03*
X019079D02*
D03*
X018079D02*
D03*
X017079D02*
D03*
X016079D02*
D03*
X015079D02*
D03*
X014079D02*
D03*
X033071D02*
D03*
X032071D02*
D03*
X031071D02*
D03*
X030071D02*
D03*
X029071D02*
D03*
X028071D02*
D03*
X027071D02*
D03*
X020079Y046929D02*
D03*
X019079D02*
D03*
X018079D02*
D03*
X017079D02*
D03*
X016079D02*
D03*
X015079D02*
D03*
X014079D02*
D03*
X033071D02*
D03*
X032071D02*
D03*
X031071D02*
D03*
X030071D02*
D03*
X029071D02*
D03*
X028071D02*
D03*
X027071D02*
D03*
D31*
X040625Y012311D02*
D03*
X040375Y030111D02*
D03*
X039275Y032111D02*
D03*
X038245Y012831D02*
D03*
X043845Y028531D02*
D03*
D32*
X044525Y018511D02*
D03*
Y020011D02*
D03*
X042725Y024561D02*
D03*
Y023411D02*
D03*
X043675Y016111D02*
D03*
X040095Y019031D02*
D03*
X040098Y021134D02*
D03*
X038495Y024381D02*
D03*
X038645Y018681D02*
D03*
X043295Y022031D02*
D03*
X043995Y020081D02*
D03*
X044525Y017261D02*
D03*
X045021Y018807D02*
D03*
D33*
X042175Y016161D02*
D03*
X041275Y019461D02*
D03*
X046325Y031611D02*
D03*
X045825Y026411D02*
D03*
D34*
X039645Y026281D02*
D03*
Y026714D02*
D03*
Y025848D02*
D03*
X040045Y025865D02*
D03*
Y026281D02*
D03*
Y026731D02*
D03*
X040478D02*
D03*
Y026298D02*
D03*
Y025865D02*
D03*
D35*
X046595Y014781D02*
D03*
X044825Y022561D02*
D03*
X044025D02*
D03*
X041575Y022461D02*
D03*
X044625Y013311D02*
D03*
X043725Y013961D02*
D03*
X042875D02*
D03*
X042475Y013111D02*
D03*
X041875Y027811D02*
D03*
X047025Y020561D02*
D03*
X042645Y020081D02*
D03*
X040945Y022931D02*
D03*
D36*
X018343Y011890D02*
D03*
X021343D02*
D03*
X018343Y012913D02*
D03*
X021343D02*
D03*
X018343Y013937D02*
D03*
X021343D02*
D03*
X018343Y014961D02*
D03*
X021343D02*
D03*
X031335Y011890D02*
D03*
X034335D02*
D03*
X031335Y012913D02*
D03*
X034335D02*
D03*
X031335Y013937D02*
D03*
X034335D02*
D03*
X031335Y014961D02*
D03*
X034335D02*
D03*
X018343Y024882D02*
D03*
X021343D02*
D03*
X018343Y025906D02*
D03*
X021343D02*
D03*
X018343Y026929D02*
D03*
X021343D02*
D03*
X018343Y027953D02*
D03*
X021343D02*
D03*
X031335Y024882D02*
D03*
X034335D02*
D03*
X031335Y025906D02*
D03*
X034335D02*
D03*
X031335Y026929D02*
D03*
X034335D02*
D03*
X031335Y027953D02*
D03*
X034335D02*
D03*
X018343Y037874D02*
D03*
X021343D02*
D03*
X018343Y038898D02*
D03*
X021343D02*
D03*
X018343Y039921D02*
D03*
X021343D02*
D03*
X018343Y040945D02*
D03*
X021343D02*
D03*
X031335Y037874D02*
D03*
X034335D02*
D03*
X031335Y038898D02*
D03*
X034335D02*
D03*
X031335Y039921D02*
D03*
X034335D02*
D03*
X031335Y040945D02*
D03*
X034335D02*
D03*
D37*
X018882Y019016D02*
D03*
X031874D02*
D03*
X018882Y032008D02*
D03*
X031874D02*
D03*
X018882Y045000D02*
D03*
X031874D02*
D03*
D38*
X020882Y019016D02*
D03*
X033874D02*
D03*
X020882Y032008D02*
D03*
X033874D02*
D03*
X020882Y045000D02*
D03*
X033874D02*
D03*
D39*
X016890Y014961D02*
D03*
X015890D02*
D03*
X015906Y017953D02*
D03*
X016906D02*
D03*
X013520Y013071D02*
D03*
X012520D02*
D03*
Y015866D02*
D03*
X013520D02*
D03*
Y018780D02*
D03*
X012520D02*
D03*
X029882Y014961D02*
D03*
X028882D02*
D03*
X028898Y017953D02*
D03*
X029898D02*
D03*
X026512Y013071D02*
D03*
X025512D02*
D03*
Y015866D02*
D03*
X026512D02*
D03*
Y018780D02*
D03*
X025512D02*
D03*
X016890Y027953D02*
D03*
X015890D02*
D03*
X015906Y030945D02*
D03*
X016906D02*
D03*
X013520Y026063D02*
D03*
X012520D02*
D03*
Y028858D02*
D03*
X013520D02*
D03*
Y031772D02*
D03*
X012520D02*
D03*
X029882Y027953D02*
D03*
X028882D02*
D03*
X028898Y030945D02*
D03*
X029898D02*
D03*
X026512Y026063D02*
D03*
X025512D02*
D03*
Y028858D02*
D03*
X026512D02*
D03*
Y031772D02*
D03*
X025512D02*
D03*
X016890Y040945D02*
D03*
X015890D02*
D03*
X015906Y043937D02*
D03*
X016906D02*
D03*
X013520Y039055D02*
D03*
X012520D02*
D03*
Y041850D02*
D03*
X013520D02*
D03*
Y044764D02*
D03*
X012520D02*
D03*
X029882Y040945D02*
D03*
X028882D02*
D03*
X028898Y043937D02*
D03*
X029898D02*
D03*
X026512Y039055D02*
D03*
X025512D02*
D03*
Y041850D02*
D03*
X026512D02*
D03*
Y044764D02*
D03*
X025512D02*
D03*
D40*
X013079Y020945D02*
D03*
X026071D02*
D03*
X013079Y033937D02*
D03*
X026071D02*
D03*
X013079Y046929D02*
D03*
X026071D02*
D03*
M02*
