M48
;Layer_Color=9474304
;FILE_FORMAT=2:4
INCH
;TYPE=PLATED
T1F00S00C0.0079
T2F00S00C0.0150
T3F00S00C0.0280
T4F00S00C0.0300
T5F00S00C0.0335
T6F00S00C0.0354
T7F00S00C0.0400
T8F00S00C0.0433
%
T01
X039645Y025848
X040045Y025865
Y026281
X039645
Y026714
X040045Y026731
X040478
Y026298
Y025865
T02
X038645Y018681
X040095Y019031
X040098Y021134
X043295Y022031
X042725Y023411
Y024561
X038495Y024381
X043995Y020081
X044525Y020011
Y018511
X045021Y018807
X044525Y017261
X043675Y016111
T03
X042475Y013111
X042875Y013961
X043725
X044625Y013311
X046595Y014781
X047025Y020561
X044825Y022561
X044025
X041575Y022461
X040945Y022931
X042645Y020081
X041875Y027811
T04
X042175Y016161
X041275Y019461
X045825Y026411
X046325Y031611
T05
X018343Y011890
Y012913
Y013937
Y014961
X021343
Y013937
Y012913
Y011890
X031335
Y012913
Y013937
Y014961
X034335
Y013937
Y012913
Y011890
Y024882
Y025906
Y026929
Y027953
X031335
Y026929
Y025906
Y024882
X021343
Y025906
Y026929
Y027953
X018343
Y026929
Y025906
Y024882
Y037874
Y038898
Y039921
Y040945
X021343
Y039921
Y038898
Y037874
X031335
Y038898
Y039921
Y040945
X034335
Y039921
Y038898
Y037874
T06
X038245Y012831
X039245
X040625Y012311
X041625
X046795Y012081
Y013081
X046295Y017431
Y018431
X043675Y018161
Y017161
X042475
Y018161
X045795Y021481
Y022481
X045845Y028531
X044845
X043845
X041375Y030111
X040375
X033071Y020945
X032071
X031071
X030071
X029071
X028071
X027071
X026071
X020079
X019079
X018079
X017079
X016079
X015079
X014079
X013079
Y033937
X014079
X015079
X016079
X017079
X018079
X019079
X020079
X026071
X027071
X028071
X029071
X030071
X031071
X032071
X033071
X039275Y032111
X040275
X033071Y046929
X032071
X031071
X030071
X029071
X028071
X027071
X026071
X020079
X019079
X018079
X017079
X016079
X015079
X014079
X013079
T07
X012520Y013071
X013520
X015890Y014961
X016890
X025512Y013071
X026512
X028882Y014961
X029882
X029898Y017953
X028898
X026512Y018780
X025512
Y015866
X026512
Y026063
X025512
Y028858
X026512
X028882Y027953
X029882
X029898Y030945
X028898
X016906
X015906
X015890Y027953
X016890
X016906Y017953
X015906
X013520Y018780
X012520
Y015866
X013520
Y026063
X012520
Y028858
X013520
Y031772
X012520
Y039055
X013520
Y041850
X012520
Y044764
X013520
X015906Y043937
X016906
X016890Y040945
X015890
X025512Y041850
X026512
Y039055
X025512
X028882Y040945
X029882
X029898Y043937
X028898
X026512Y044764
X025512
Y031772
X026512
T08
X031874Y019016
X033874
X020882
X018882
Y032008
X020882
Y045000
X018882
X031874
X033874
Y032008
X031874
M30
