%FSDAX24Y24*%
%MOIN*%
%SFA1B1*%

%IPPOS*%
%ADD11C,0.009800*%
%ADD12R,0.059100X0.059100*%
%ADD13C,0.059100*%
%ADD14C,0.065000*%
%ADD15R,0.072800X0.072800*%
%ADD16C,0.072800*%
%LNcollision_detector-1*%
%LPD*%
G54D11*
X031457Y029549D02*
Y032354D01*
X038152Y031372D02*
Y035602D01*
X040152Y030813D02*
Y035602D01*
Y030813D02*
X042646Y028319D01*
X031457Y026744D02*
Y029549D01*
X032228Y033679D02*
X034152Y035602D01*
X032228Y026252D02*
Y033679D01*
X031687Y025711D02*
X032228Y026252D01*
X031244Y025711D02*
X031687D01*
X030457Y026498D02*
X031244Y025711D01*
X030457Y026498D02*
Y026744D01*
X029678Y030327D02*
Y035209D01*
Y030327D02*
X030457Y029549D01*
X035476Y030697D02*
Y033927D01*
X037152Y035602*
X029678Y035209D02*
X030761Y036291D01*
X034463*
X035152Y035602*
X037362Y030583D02*
X038152Y031372D01*
X035362Y030583D02*
X035476Y030697D01*
G54D12*
X033152Y035602D03*
G54D13*
X034152Y035602D03*
X035152D03*
X036152D03*
X037152D03*
X038152D03*
X039152D03*
X040152D03*
G54D14*
X030457Y032354D03*
X031457D03*
X030457Y029549D03*
X031457D03*
Y026744D03*
X030457D03*
X041637Y032010D03*
X042637D03*
X042646Y028319D03*
X041646D03*
G54D15*
X035476Y030583D03*
G54D16*
X037476Y030583D03*
M02*