Added Component: Designator=D1(LED-3MM-GREEN)
Add component. Clean all parameters for all variants
Added Component: Designator=D2(LED-3MM-YELLOW)
Add component. Clean all parameters for all variants
Added Component: Designator=D3(LED-3MM-RED)
Add component. Clean all parameters for all variants
Added Component: Designator=D4(LED-5MM-RED)
Add component. Clean all parameters for all variants
Added Component: Designator=R1(AXIAL-0.3)
Add component. Clean all parameters for all variants
Add component (AddParameter): Name = "LatestRevisionDate"; Value = "17-Jul-2002"; VariantName = "[No Variations]"
Add component (AddParameter): Name = "LatestRevisionNote"; Value = "Re-released for DXP Platform."; VariantName = "[No Variations]"
Add component (AddParameter): Name = "PackageDescription"; Value = "Axial Device, Thru-Hole; 2 Leads; 0.3 in Pin Spacing"; VariantName = "[No Variations]"
Add component (AddParameter): Name = "PackageReference"; Value = "AXIAL-0.3"; VariantName = "[No Variations]"
Add component (AddParameter): Name = "Published"; Value = "8-Jun-2000"; VariantName = "[No Variations]"
Add component (AddParameter): Name = "Publisher"; Value = "Altium Limited"; VariantName = "[No Variations]"
Add component (AddParameter): Name = "Value"; Value = "10K"; VariantName = "[No Variations]"
Added Component: Designator=R2(AXIAL-0.3)
Add component. Clean all parameters for all variants
Add component (AddParameter): Name = "LatestRevisionDate"; Value = "17-Jul-2002"; VariantName = "[No Variations]"
Add component (AddParameter): Name = "LatestRevisionNote"; Value = "Re-released for DXP Platform."; VariantName = "[No Variations]"
Add component (AddParameter): Name = "PackageDescription"; Value = "Axial Device, Thru-Hole; 2 Leads; 0.3 in Pin Spacing"; VariantName = "[No Variations]"
Add component (AddParameter): Name = "PackageReference"; Value = "AXIAL-0.3"; VariantName = "[No Variations]"
Add component (AddParameter): Name = "Published"; Value = "8-Jun-2000"; VariantName = "[No Variations]"
Add component (AddParameter): Name = "Publisher"; Value = "Altium Limited"; VariantName = "[No Variations]"
Add component (AddParameter): Name = "Value"; Value = "10K"; VariantName = "[No Variations]"
Added Component: Designator=R3(AXIAL-0.3)
Add component. Clean all parameters for all variants
Add component (AddParameter): Name = "LatestRevisionDate"; Value = "17-Jul-2002"; VariantName = "[No Variations]"
Add component (AddParameter): Name = "LatestRevisionNote"; Value = "Re-released for DXP Platform."; VariantName = "[No Variations]"
Add component (AddParameter): Name = "PackageDescription"; Value = "Axial Device, Thru-Hole; 2 Leads; 0.3 in Pin Spacing"; VariantName = "[No Variations]"
Add component (AddParameter): Name = "PackageReference"; Value = "AXIAL-0.3"; VariantName = "[No Variations]"
Add component (AddParameter): Name = "Published"; Value = "8-Jun-2000"; VariantName = "[No Variations]"
Add component (AddParameter): Name = "Publisher"; Value = "Altium Limited"; VariantName = "[No Variations]"
Add component (AddParameter): Name = "Value"; Value = "220"; VariantName = "[No Variations]"
Added Component: Designator=R4(AXIAL-0.3)
Add component. Clean all parameters for all variants
Add component (AddParameter): Name = "LatestRevisionDate"; Value = "17-Jul-2002"; VariantName = "[No Variations]"
Add component (AddParameter): Name = "LatestRevisionNote"; Value = "Re-released for DXP Platform."; VariantName = "[No Variations]"
Add component (AddParameter): Name = "PackageDescription"; Value = "Axial Device, Thru-Hole; 2 Leads; 0.3 in Pin Spacing"; VariantName = "[No Variations]"
Add component (AddParameter): Name = "PackageReference"; Value = "AXIAL-0.3"; VariantName = "[No Variations]"
Add component (AddParameter): Name = "Published"; Value = "8-Jun-2000"; VariantName = "[No Variations]"
Add component (AddParameter): Name = "Publisher"; Value = "Altium Limited"; VariantName = "[No Variations]"
Add component (AddParameter): Name = "Value"; Value = "220"; VariantName = "[No Variations]"
Added Component: Designator=S1(SPST-2)
Add component. Clean all parameters for all variants
Add component (AddParameter): Name = "LatestRevisionDate"; Value = "17-Jul-2002"; VariantName = "[No Variations]"
Add component (AddParameter): Name = "LatestRevisionNote"; Value = "Re-released for DXP Platform."; VariantName = "[No Variations]"
Add component (AddParameter): Name = "PackageDescription"; Value = "Switch; 2 Leads"; VariantName = "[No Variations]"
Add component (AddParameter): Name = "PackageReference"; Value = "SPST-2"; VariantName = "[No Variations]"
Add component (AddParameter): Name = "Published"; Value = "24-Mar-1999"; VariantName = "[No Variations]"
Add component (AddParameter): Name = "Publisher"; Value = "Altium Limited"; VariantName = "[No Variations]"
Added Component: Designator=T1(LED-5MM-RED)
Add component. Clean all parameters for all variants
Added Component: Designator=TO ARDUINO(HDR1X8)
Add component. Clean all parameters for all variants
Add component (AddParameter): Name = "LatestRevisionDate"; Value = "17-Jul-2002"; VariantName = "[No Variations]"
Add component (AddParameter): Name = "LatestRevisionNote"; Value = "Re-released for DXP Platform."; VariantName = "[No Variations]"
Add component (AddParameter): Name = "Publisher"; Value = "Altium Limited"; VariantName = "[No Variations]"
Added Pin To Net: NetName=5V Pin=S1-2
Added Pin To Net: NetName=5V Pin=T1-A
Added Pin To Net: NetName=5V Pin=TO ARDUINO-6
Added Net: Name=5V
Added Pin To Net: NetName=COLOUR_LED_LOW Pin=D1-K
Added Pin To Net: NetName=COLOUR_LED_LOW Pin=D2-K
Added Pin To Net: NetName=COLOUR_LED_LOW Pin=D3-K
Added Pin To Net: NetName=COLOUR_LED_LOW Pin=R4-1
Added Net: Name=COLOUR_LED_LOW
Added Pin To Net: NetName=GND Pin=R1-2
Added Pin To Net: NetName=GND Pin=R2-2
Added Pin To Net: NetName=GND Pin=R3-2
Added Pin To Net: NetName=GND Pin=R4-2
Added Pin To Net: NetName=GND Pin=TO ARDUINO-1
Added Net: Name=GND
Added Pin To Net: NetName=GREEN_HIGH Pin=D1-A
Added Pin To Net: NetName=GREEN_HIGH Pin=TO ARDUINO-2
Added Net: Name=GREEN_HIGH
Added Pin To Net: NetName=IR_HI Pin=D4-A
Added Pin To Net: NetName=IR_HI Pin=TO ARDUINO-5
Added Net: Name=IR_HI
Added Pin To Net: NetName=IR_IN Pin=R2-1
Added Pin To Net: NetName=IR_IN Pin=T1-K
Added Pin To Net: NetName=IR_IN Pin=TO ARDUINO-7
Added Net: Name=IR_IN
Added Pin To Net: NetName=IR_LO Pin=D4-K
Added Pin To Net: NetName=IR_LO Pin=R3-1
Added Net: Name=IR_LO
Added Pin To Net: NetName=RED_HIGH Pin=D3-A
Added Pin To Net: NetName=RED_HIGH Pin=TO ARDUINO-4
Added Net: Name=RED_HIGH
Added Pin To Net: NetName=SWITCH_IN Pin=R1-1
Added Pin To Net: NetName=SWITCH_IN Pin=S1-1
Added Pin To Net: NetName=SWITCH_IN Pin=TO ARDUINO-8
Added Net: Name=SWITCH_IN
Added Pin To Net: NetName=YELLOW_HIGH Pin=D2-A
Added Pin To Net: NetName=YELLOW_HIGH Pin=TO ARDUINO-3
Added Net: Name=YELLOW_HIGH
Added Class: Name=Collision_Detector
Added Room: Name=Collision_Detector
