Replace Part C1 0805C-TBD in C:\Users\Harry Price\OneDrive\Documents\Uni\ZZZBLUESAT\SpinDetectorV1\SpinDetectorV1.SchDoc with 0805C-TBD from vh_altium_library.intLib
Replace Part C2 0805C-TBD in C:\Users\Harry Price\OneDrive\Documents\Uni\ZZZBLUESAT\SpinDetectorV1\SpinDetectorV1.SchDoc with 0805C-TBD from vh_altium_library.intLib
Replace Part C3 0805C-TBD in C:\Users\Harry Price\OneDrive\Documents\Uni\ZZZBLUESAT\SpinDetectorV1\SpinDetectorV1.SchDoc with 0805C-TBD from vh_altium_library.intLib
Replace Part C4 0805C-TBD in C:\Users\Harry Price\OneDrive\Documents\Uni\ZZZBLUESAT\SpinDetectorV1\SpinDetectorV1.SchDoc with 0805C-TBD from vh_altium_library.intLib
Replace Part P1 Header 6 in C:\Users\Harry Price\OneDrive\Documents\Uni\ZZZBLUESAT\SpinDetectorV1\SpinDetectorV1.SchDoc with Header 6 from Miscellaneous Connectors.IntLib
Replace Part U1 Component_1 in C:\Users\Harry Price\OneDrive\Documents\Uni\ZZZBLUESAT\SpinDetectorV1\SpinDetectorV1.SchDoc with Component_1 from SpinDetectorV1.SchLib
